{"d_date":"2017-04-01","order_qty":"162330.0"}
{"d_date":"2017-05-01","order_qty":"117600.0"}
{"d_date":"2017-05-30","order_qty":"143700.0"}
{"d_date":"2017-07-05","order_qty":"133800.0"}
{"d_date":"2017-07-07","order_qty":"66900.0"}
{"d_date":"2017-07-08","order_qty":"450.0"}
{"d_date":"2017-07-15","order_qty":"13500.0"}
{"d_date":"2017-07-17","order_qty":"137880.0"}
{"d_date":"2017-07-19","order_qty":"68940.0"}
{"d_date":"2017-08-01","order_qty":"165000.0"}
{"d_date":"2017-08-12","order_qty":"6000.0"}
{"d_date":"2017-08-15","order_qty":"15000.0"}
{"d_date":"2017-08-17","order_qty":"9000.0"}
{"d_date":"2017-08-19","order_qty":"9000.0"}
{"d_date":"2017-08-21","order_qty":"6300.0"}
{"d_date":"2017-08-23","order_qty":"6000.0"}
{"d_date":"2017-09-07","order_qty":"195000.0"}
{"d_date":"2017-09-28","order_qty":"165000.0"}
{"d_date":"2017-10-02","order_qty":"15000.0"}